^C:\USERS\MSI_GE66\DESKTOP\CODE\MODERN-X86-ASSEMBLY-LANGUAGE-PROGRAMMING-2E\CH2_X86-64 CORE PROGRAMMING_1\CH02_01\X64\DEBUG\CH02_01.OBJ|C:\USERS\MSI_GE66\DESKTOP\CODE\MODERN-X86-ASSEMBLY-LANGUAGE-PROGRAMMING-2E\CH2_X86-64 CORE PROGRAMMING_1\CH02_01\X64\DEBUG\CH02_01_.OBJ|C:\USERS\MSI_GE66\DESKTOP\CODE\MODERN-X86-ASSEMBLY-LANGUAGE-PROGRAMMING-2E\CH2_X86-64 CORE PROGRAMMING_1\CH02_01\X64\DEBUG\STDAFX.OBJ
C:\USERS\MSI_GE66\DESKTOP\CODE\MODERN-X86-ASSEMBLY-LANGUAGE-PROGRAMMING-2E\CH2_X86-64 CORE PROGRAMMING_1\X64\DEBUG\CH02_01.ILK
C:\USERS\MSI_GE66\DESKTOP\CODE\MODERN-X86-ASSEMBLY-LANGUAGE-PROGRAMMING-2E\CH2_X86-64 CORE PROGRAMMING_1\X64\DEBUG\CH02_01.EXE
C:\USERS\MSI_GE66\DESKTOP\CODE\MODERN-X86-ASSEMBLY-LANGUAGE-PROGRAMMING-2E\CH2_X86-64 CORE PROGRAMMING_1\X64\DEBUG\CH02_01.PDB
